@startuml petla_faktorki

IntelligentAgent -> StrategyBasedDecisionFactory : get_action(obs)
StrategyBasedDecisionFactory -> StrategyBasedDecisionFactory : last_action_succeeded(obs)
opt not last_action_succeeded
    StrategyBasedDecisionFactory --> IntelligentAgent : current_action
end

StrategyBasedDecisionFactory -> Strategy : notify(action_result, alerts)
opt len(actions) == 0
    StrategyBasedDecisionFactory -> Strategy : create_command(obs)
    return command
    opt command == None
        StrategyBasedDecisionFactory --> IntelligentAgent : no_op
    end
    StrategyBasedDecisionFactory -> Command : get_actions
    return actions
end

StrategyBasedDecisionFactory -> StrategyBasedDecisionFactory : actions.pop(0)
StrategyBasedDecisionFactory --> IntelligentAgent : action

@enduml